EESchema Schematic File Version 4
EELAYER 30 0
EELAYER END
$Descr A4 11693 8268
encoding utf-8
Sheet 1 1
Title ""
Date ""
Rev ""
Comp ""
Comment1 ""
Comment2 ""
Comment3 ""
Comment4 ""
$EndDescr
$Comp
L LED:WS2812B LED2
U 1 1 61A4CEF4
P 9500 2850
F 0 "LED2" H 9844 2896 50  0000 L CNN
F 1 "WS2812B" H 9844 2805 50  0000 L CNN
F 2 "LED_SMD:LED_WS2812B_PLCC4_5.0x5.0mm_P3.2mm" H 9550 2550 50  0001 L TNN
F 3 "https://cdn-shop.adafruit.com/datasheets/WS2812B.pdf" H 9600 2475 50  0001 L TNN
	1    9500 2850
	1    0    0    -1  
$EndComp
$Comp
L pico_rp2040:PICO_RP2040 U1
U 1 1 61A4E6C3
P 6250 2650
F 0 "U1" H 6225 4015 50  0000 C CNN
F 1 "PICO_RP2040" H 6225 3924 50  0000 C CNN
F 2 "Raspberry Pi Pico:RPi_Pico_SMD_TH" H 6150 4100 50  0001 C CNN
F 3 "" H 6150 4100 50  0001 C CNN
	1    6250 2650
	1    0    0    -1  
$EndComp
$Comp
L Switch:SW_SPST SW1
U 1 1 61A53C13
P 3700 2000
F 0 "SW1" H 3700 2235 50  0000 C CNN
F 1 "SW_SPST" H 3700 2144 50  0000 C CNN
F 2 "Button_Switch_THT:SW_PUSH-12mm_Wuerth-430476085716" H 3700 2000 50  0001 C CNN
F 3 "~" H 3700 2000 50  0001 C CNN
	1    3700 2000
	1    0    0    -1  
$EndComp
$Comp
L Switch:SW_SPST SW2
U 1 1 61A5445A
P 3700 2500
F 0 "SW2" H 3700 2735 50  0000 C CNN
F 1 "SW_SPST" H 3700 2644 50  0000 C CNN
F 2 "Button_Switch_THT:SW_PUSH-12mm_Wuerth-430476085716" H 3700 2500 50  0001 C CNN
F 3 "~" H 3700 2500 50  0001 C CNN
	1    3700 2500
	1    0    0    -1  
$EndComp
$Comp
L Switch:SW_SPST SW3
U 1 1 61A54768
P 3700 3000
F 0 "SW3" H 3700 3235 50  0000 C CNN
F 1 "SW_SPST" H 3700 3144 50  0000 C CNN
F 2 "Button_Switch_THT:SW_PUSH-12mm_Wuerth-430476085716" H 3700 3000 50  0001 C CNN
F 3 "~" H 3700 3000 50  0001 C CNN
	1    3700 3000
	1    0    0    -1  
$EndComp
$Comp
L pspice:R R1
U 1 1 61A54BA6
P 8750 1950
F 0 "R1" V 8545 1950 50  0000 C CNN
F 1 "470" V 8636 1950 50  0000 C CNN
F 2 "Resistor_THT:R_Axial_DIN0207_L6.3mm_D2.5mm_P10.16mm_Horizontal" H 8750 1950 50  0001 C CNN
F 3 "~" H 8750 1950 50  0001 C CNN
	1    8750 1950
	0    1    1    0   
$EndComp
$Comp
L pspice:R R4
U 1 1 61A5669F
P 4800 4200
F 0 "R4" V 4595 4200 50  0000 C CNN
F 1 "4700" V 4686 4200 50  0000 C CNN
F 2 "Resistor_THT:R_Axial_DIN0207_L6.3mm_D2.5mm_P10.16mm_Horizontal" H 4800 4200 50  0001 C CNN
F 3 "~" H 4800 4200 50  0001 C CNN
	1    4800 4200
	0    1    1    0   
$EndComp
$Comp
L Sensor:DHT11 U2
U 1 1 61A56D54
P 4150 4600
F 0 "U2" H 3906 4646 50  0000 R CNN
F 1 "DHT11" H 3906 4555 50  0000 R CNN
F 2 "Sensor:Aosong_DHT11_5.5x12.0_P2.54mm" H 4150 4200 50  0001 C CNN
F 3 "http://akizukidenshi.com/download/ds/aosong/DHT11.pdf" H 4300 4850 50  0001 C CNN
	1    4150 4600
	1    0    0    -1  
$EndComp
$Comp
L power:GND #PWR0102
U 1 1 61A5E8A5
P 4150 4900
F 0 "#PWR0102" H 4150 4650 50  0001 C CNN
F 1 "GND" H 4155 4727 50  0000 C CNN
F 2 "" H 4150 4900 50  0001 C CNN
F 3 "" H 4150 4900 50  0001 C CNN
	1    4150 4900
	1    0    0    -1  
$EndComp
Wire Wire Line
	4150 4200 4550 4200
Wire Wire Line
	4150 4200 4150 4300
Wire Wire Line
	5050 4200 5050 4600
Wire Wire Line
	5050 4600 4450 4600
$Comp
L power:GND #PWR0103
U 1 1 61A6813A
P 6100 4300
F 0 "#PWR0103" H 6100 4050 50  0001 C CNN
F 1 "GND" H 6105 4127 50  0000 C CNN
F 2 "" H 6100 4300 50  0001 C CNN
F 3 "" H 6100 4300 50  0001 C CNN
	1    6100 4300
	-1   0    0    1   
$EndComp
$Comp
L Connector:Conn_01x04_Female J1
U 1 1 61A58542
P 6200 4500
F 0 "J1" V 6228 4476 50  0000 L CNN
F 1 "OLED Display" H 6228 4385 50  0000 L CNN
F 2 "Connector_PinHeader_2.00mm:PinHeader_1x04_P2.00mm_Vertical" H 6200 4500 50  0001 C CNN
F 3 "~" H 6200 4500 50  0001 C CNN
	1    6200 4500
	0    -1   1    0   
$EndComp
Wire Wire Line
	6300 4300 6300 4000
Wire Wire Line
	6400 4300 6400 4000
Text Label 6400 4000 0    50   ~ 0
SDA1
Wire Wire Line
	5600 1700 5400 1700
Wire Wire Line
	5600 1800 5400 1800
Wire Wire Line
	6850 3600 7050 3600
Wire Wire Line
	6850 3300 7050 3300
Wire Wire Line
	6850 2100 7050 2100
Text Label 7050 2100 0    50   ~ 0
VCC
Text Label 7050 3300 0    50   ~ 0
GPIO18
Text Label 7050 3600 0    50   ~ 0
GPIO16
Wire Wire Line
	5600 3000 5400 3000
Wire Wire Line
	5600 3100 5400 3100
Wire Wire Line
	5600 3200 5400 3200
Text Label 5400 1700 0    50   ~ 0
SDA1
Text Label 5400 1800 0    50   ~ 0
SCL1
Text Label 5400 3000 0    50   ~ 0
GPIO10
Text Label 5400 3100 0    50   ~ 0
GPIO11
Text Label 5400 3200 0    50   ~ 0
GPIO12
Wire Wire Line
	6850 1900 7050 1900
Text Label 7050 1900 0    50   ~ 0
GND
Wire Wire Line
	3500 2000 3250 2000
Wire Wire Line
	3500 2500 3250 2500
Wire Wire Line
	3500 3000 3250 3000
Wire Wire Line
	3900 2000 4150 2000
Wire Wire Line
	3900 2500 4150 2500
Wire Wire Line
	3900 3000 4150 3000
Text Label 3250 2000 0    50   ~ 0
VCC
Text Label 3250 2500 0    50   ~ 0
VCC
Text Label 3250 3000 0    50   ~ 0
VCC
Text Label 4150 2000 0    50   ~ 0
GPIO10
Text Label 4150 2500 0    50   ~ 0
GPIO11
Text Label 4150 3000 0    50   ~ 0
GPIO12
Wire Wire Line
	5050 4600 5300 4600
Connection ~ 5050 4600
Text Label 5300 4600 0    50   ~ 0
GPIO16
Wire Wire Line
	8500 1950 8200 1950
Text Label 8200 1950 0    50   ~ 0
GPIO18
Wire Wire Line
	9800 1950 9800 2500
Wire Wire Line
	9800 2500 9200 2500
Wire Wire Line
	9200 2500 9200 2850
Wire Wire Line
	9800 2850 9800 3400
Wire Wire Line
	9800 3400 9200 3400
Wire Wire Line
	9200 3400 9200 3900
$Comp
L LED:WS2812B LED3
U 1 1 61A4D40E
P 9500 3900
F 0 "LED3" H 9844 3946 50  0000 L CNN
F 1 "WS2812B" H 9844 3855 50  0000 L CNN
F 2 "LED_SMD:LED_WS2812B_PLCC4_5.0x5.0mm_P3.2mm" H 9550 3600 50  0001 L TNN
F 3 "https://cdn-shop.adafruit.com/datasheets/WS2812B.pdf" H 9600 3525 50  0001 L TNN
	1    9500 3900
	1    0    0    -1  
$EndComp
Text Label 8300 2550 0    50   ~ 0
VCC
Wire Wire Line
	9000 1950 9200 1950
Text Label 8300 3600 0    50   ~ 0
VCC
$Comp
L power:GND #PWR0105
U 1 1 61A7D4F9
P 9500 2250
F 0 "#PWR0105" H 9500 2000 50  0001 C CNN
F 1 "GND" H 9505 2077 50  0000 C CNN
F 2 "" H 9500 2250 50  0001 C CNN
F 3 "" H 9500 2250 50  0001 C CNN
	1    9500 2250
	1    0    0    -1  
$EndComp
$Comp
L power:GND #PWR0106
U 1 1 61A7DE4C
P 9500 3150
F 0 "#PWR0106" H 9500 2900 50  0001 C CNN
F 1 "GND" H 9505 2977 50  0000 C CNN
F 2 "" H 9500 3150 50  0001 C CNN
F 3 "" H 9500 3150 50  0001 C CNN
	1    9500 3150
	1    0    0    -1  
$EndComp
$Comp
L power:GND #PWR0107
U 1 1 61A7E6E8
P 9500 4200
F 0 "#PWR0107" H 9500 3950 50  0001 C CNN
F 1 "GND" H 9505 4027 50  0000 C CNN
F 2 "" H 9500 4200 50  0001 C CNN
F 3 "" H 9500 4200 50  0001 C CNN
	1    9500 4200
	1    0    0    -1  
$EndComp
Wire Wire Line
	8300 2550 9500 2550
Wire Wire Line
	8300 3600 9500 3600
$Comp
L LED:WS2812B LED1
U 1 1 61A4B872
P 9500 1950
F 0 "LED1" H 9844 1996 50  0000 L CNN
F 1 "WS2812B" H 9844 1905 50  0000 L CNN
F 2 "LED_SMD:LED_WS2812B_PLCC4_5.0x5.0mm_P3.2mm" H 9550 1650 50  0001 L TNN
F 3 "https://cdn-shop.adafruit.com/datasheets/WS2812B.pdf" H 9600 1575 50  0001 L TNN
	1    9500 1950
	1    0    0    -1  
$EndComp
Wire Wire Line
	9500 1650 8300 1650
Text Label 8300 1650 0    50   ~ 0
VCC
NoConn ~ 5600 1900
NoConn ~ 5600 2000
NoConn ~ 5600 2100
NoConn ~ 5600 2200
NoConn ~ 5600 2300
NoConn ~ 5600 2400
NoConn ~ 5600 2500
NoConn ~ 5600 2600
NoConn ~ 5600 2700
NoConn ~ 5600 2800
NoConn ~ 5600 2900
NoConn ~ 5600 3300
NoConn ~ 5600 3400
NoConn ~ 5600 3500
NoConn ~ 5600 3600
NoConn ~ 6850 3500
NoConn ~ 6850 3400
NoConn ~ 6850 3200
NoConn ~ 6850 3100
NoConn ~ 6850 3000
NoConn ~ 6850 2900
NoConn ~ 6850 2800
NoConn ~ 6850 2700
NoConn ~ 6850 2600
NoConn ~ 6850 2500
NoConn ~ 6850 2400
NoConn ~ 6850 2300
NoConn ~ 6850 2200
NoConn ~ 6850 2000
NoConn ~ 6850 1800
NoConn ~ 6850 1700
NoConn ~ 9800 3900
Wire Wire Line
	4150 4200 4150 3950
Connection ~ 4150 4200
Text Label 4150 3950 0    50   ~ 0
VCC
Wire Wire Line
	6200 4300 6200 4000
Text Label 6200 4000 0    50   ~ 0
VCC
Text Label 6300 4000 2    50   ~ 0
SCL1
$Comp
L Mechanical:MountingHole H1
U 1 1 61A5AF8B
P 3950 5600
F 0 "H1" H 4050 5646 50  0000 L CNN
F 1 "MountingHole" H 4050 5555 50  0000 L CNN
F 2 "MountingHole:MountingHole_2mm" H 3950 5600 50  0001 C CNN
F 3 "~" H 3950 5600 50  0001 C CNN
	1    3950 5600
	1    0    0    -1  
$EndComp
$Comp
L Mechanical:MountingHole H2
U 1 1 61A5BC85
P 3950 5900
F 0 "H2" H 4050 5946 50  0000 L CNN
F 1 "MountingHole" H 4050 5855 50  0000 L CNN
F 2 "MountingHole:MountingHole_2mm" H 3950 5900 50  0001 C CNN
F 3 "~" H 3950 5900 50  0001 C CNN
	1    3950 5900
	1    0    0    -1  
$EndComp
$Comp
L Mechanical:MountingHole H3
U 1 1 61A5C439
P 3950 6200
F 0 "H3" H 4050 6246 50  0000 L CNN
F 1 "MountingHole" H 4050 6155 50  0000 L CNN
F 2 "MountingHole:MountingHole_2mm" H 3950 6200 50  0001 C CNN
F 3 "~" H 3950 6200 50  0001 C CNN
	1    3950 6200
	1    0    0    -1  
$EndComp
$Comp
L Mechanical:MountingHole H4
U 1 1 61A5CBEC
P 3950 6500
F 0 "H4" H 4050 6546 50  0000 L CNN
F 1 "MountingHole" H 4050 6455 50  0000 L CNN
F 2 "MountingHole:MountingHole_2mm" H 3950 6500 50  0001 C CNN
F 3 "~" H 3950 6500 50  0001 C CNN
	1    3950 6500
	1    0    0    -1  
$EndComp
$EndSCHEMATC
