FILE_TYPE = EXPANDEDPARTLIST;
{ Using PSTWRITER 17.4.0 d001Oct-04-2021 at 15:39:58 }
DIRECTIVES
 PST_VERSION='PST_HDL_CENTRIC_VERSION_0';
 ROOT_DRAWING='RP2040_ECOMPASS_CARRIER_BOARD';
 POST_TIME='Aug  8 2021 23:35:53';
 SOURCE_TOOL='CAPTURE_WRITER';
END_DIRECTIVES;

PART_NAME
 C1 'CL31A105KB9LNNC_CAP_CL31_SAM_CAPH':;

SECTION_NUMBER 1
 '@RP2040_ECOMPASS_CARRIER_BOARD.SCHEMATIC1(SCH_1):INS52554@ORCAPTUREDOWNLOAD.CL31A105KB9LNNC.NORMAL(SCH_1)':
 C_PATH='@rp2040_ecompass_carrier_board.schematic1(sch_1):ins52554@orcapturedownload.\cl31a105kb9lnnc.normal\(sch_1)',
 P_PATH='@rp2040_ecompass_carrier_board.schematic1(sch_1):page1_ins52554@orcapturedownload.\cl31a105kb9lnnc.normal\(sch_1)',
 PRIM_FILE='.\pstchip.dat',
 SECTION='';

PART_NAME
 C2 'CL31A105KB9LNNC_CAP_CL31_SAM_CAPH':;

SECTION_NUMBER 1
 '@RP2040_ECOMPASS_CARRIER_BOARD.SCHEMATIC1(SCH_1):INS52720@ORCAPTUREDOWNLOAD.CL31A105KB9LNNC.NORMAL(SCH_1)':
 C_PATH='@rp2040_ecompass_carrier_board.schematic1(sch_1):ins52720@orcapturedownload.\cl31a105kb9lnnc.normal\(sch_1)',
 P_PATH='@rp2040_ecompass_carrier_board.schematic1(sch_1):page1_ins52720@orcapturedownload.\cl31a105kb9lnnc.normal\(sch_1)',
 PRIM_FILE='.\pstchip.dat',
 SECTION='';

PART_NAME
 C3 'CL31B103KBCNNNC_CAP_CL31_SAM_CAPH':;

SECTION_NUMBER 1
 '@RP2040_ECOMPASS_CARRIER_BOARD.SCHEMATIC1(SCH_1):INS53215@ORCAPTUREDOWNLOAD.CL31B103KBCNNNC.NORMAL(SCH_1)':
 C_PATH='@rp2040_ecompass_carrier_board.schematic1(sch_1):ins53215@orcapturedownload.\cl31b103kbcnnnc.normal\(sch_1)',
 P_PATH='@rp2040_ecompass_carrier_board.schematic1(sch_1):page1_ins53215@orcapturedownload.\cl31b103kbcnnnc.normal\(sch_1)',
 PRIM_FILE='.\pstchip.dat',
 SECTION='';

PART_NAME
 C4 'CL31B104KBCNNNC_CAP_CL31_SAM_CAPH':;

SECTION_NUMBER 1
 '@RP2040_ECOMPASS_CARRIER_BOARD.SCHEMATIC1(SCH_1):INS53441@ORCAPTUREDOWNLOAD.CL31B104KBCNNNC.NORMAL(SCH_1)':
 C_PATH='@rp2040_ecompass_carrier_board.schematic1(sch_1):ins53441@orcapturedownload.\cl31b104kbcnnnc.normal\(sch_1)',
 P_PATH='@rp2040_ecompass_carrier_board.schematic1(sch_1):page1_ins53441@orcapturedownload.\cl31b104kbcnnnc.normal\(sch_1)',
 PRIM_FILE='.\pstchip.dat',
 SECTION='';

PART_NAME
 C5 'CL31B104KBCNNNC_CAP_CL31_SAM_CAPH':;

SECTION_NUMBER 1
 '@RP2040_ECOMPASS_CARRIER_BOARD.SCHEMATIC1(SCH_1):INS53563@ORCAPTUREDOWNLOAD.CL31B104KBCNNNC.NORMAL(SCH_1)':
 C_PATH='@rp2040_ecompass_carrier_board.schematic1(sch_1):ins53563@orcapturedownload.\cl31b104kbcnnnc.normal\(sch_1)',
 P_PATH='@rp2040_ecompass_carrier_board.schematic1(sch_1):page1_ins53563@orcapturedownload.\cl31b104kbcnnnc.normal\(sch_1)',
 PRIM_FILE='.\pstchip.dat',
 SECTION='';

PART_NAME
 C6 'CL31B104KBCNNNC_CAP_CL31_SAM_CAPH':;

SECTION_NUMBER 1
 '@RP2040_ECOMPASS_CARRIER_BOARD.SCHEMATIC1(SCH_1):INS53601@ORCAPTUREDOWNLOAD.CL31B104KBCNNNC.NORMAL(SCH_1)':
 C_PATH='@rp2040_ecompass_carrier_board.schematic1(sch_1):ins53601@orcapturedownload.\cl31b104kbcnnnc.normal\(sch_1)',
 P_PATH='@rp2040_ecompass_carrier_board.schematic1(sch_1):page1_ins53601@orcapturedownload.\cl31b104kbcnnnc.normal\(sch_1)',
 PRIM_FILE='.\pstchip.dat',
 SECTION='';

PART_NAME
 DS1 'MDOB064032AV-WI_1_MDOB064032AV-WI_MDOB064032AV-WI':;

SECTION_NUMBER 1
 '@RP2040_ECOMPASS_CARRIER_BOARD.SCHEMATIC1(SCH_1):INS53700@RP2040_ECOMPASS_CARRIER_BOARD.MDOB064032AV-WI_1.NORMAL(CHIPS)':
 C_PATH='@rp2040_ecompass_carrier_board.schematic1(sch_1):ins53700@rp2040_ecompass_carrier_board.\mdob064032av-wi_1.normal\(chips)',
 P_PATH='@rp2040_ecompass_carrier_board.schematic1(sch_1):page1_ins53700@rp2040_ecompass_carrier_board.\mdob064032av-wi_1.normal\(chips)',
 PRIM_FILE='.\pstchip.dat',
 SECTION='';

PART_NAME
 IC1 'WS2812B_1_WS2812B_0_WS2812B_LED1':;

SECTION_NUMBER 1
 '@RP2040_ECOMPASS_CARRIER_BOARD.SCHEMATIC1(SCH_1):INS26845@RP2040_ECOMPASS_CARRIER_BOARD.WS2812B_1.NORMAL(CHIPS)':
 C_PATH='@rp2040_ecompass_carrier_board.schematic1(sch_1):ins26845@rp2040_ecompass_carrier_board.\ws2812b_1.normal\(chips)',
 P_PATH='@rp2040_ecompass_carrier_board.schematic1(sch_1):page1_ins26845@rp2040_ecompass_carrier_board.\ws2812b_1.normal\(chips)',
 PRIM_FILE='.\pstchip.dat',
 SECTION='';

PART_NAME
 IC2 'WS2812B_1_WS2812B_0_WS2812B_LED2':;

SECTION_NUMBER 1
 '@RP2040_ECOMPASS_CARRIER_BOARD.SCHEMATIC1(SCH_1):INS27556@RP2040_ECOMPASS_CARRIER_BOARD.WS2812B_1.NORMAL(CHIPS)':
 C_PATH='@rp2040_ecompass_carrier_board.schematic1(sch_1):ins27556@rp2040_ecompass_carrier_board.\ws2812b_1.normal\(chips)',
 P_PATH='@rp2040_ecompass_carrier_board.schematic1(sch_1):page1_ins27556@rp2040_ecompass_carrier_board.\ws2812b_1.normal\(chips)',
 PRIM_FILE='.\pstchip.dat',
 SECTION='';

PART_NAME
 IC3 'WS2812B_1_WS2812B_0_WS2812B_LED3':;

SECTION_NUMBER 1
 '@RP2040_ECOMPASS_CARRIER_BOARD.SCHEMATIC1(SCH_1):INS28058@RP2040_ECOMPASS_CARRIER_BOARD.WS2812B_1.NORMAL(CHIPS)':
 C_PATH='@rp2040_ecompass_carrier_board.schematic1(sch_1):ins28058@rp2040_ecompass_carrier_board.\ws2812b_1.normal\(chips)',
 P_PATH='@rp2040_ecompass_carrier_board.schematic1(sch_1):page1_ins28058@rp2040_ecompass_carrier_board.\ws2812b_1.normal\(chips)',
 PRIM_FILE='.\pstchip.dat',
 SECTION='';

PART_NAME
 J1 'PICO_1_PICO_1_PICO':;

SECTION_NUMBER 1
 '@RP2040_ECOMPASS_CARRIER_BOARD.SCHEMATIC1(SCH_1):INS8934@RP2040_ECOMPASS_CARRIER_BOARD.PICO_1.NORMAL(CHIPS)':
 C_PATH='@rp2040_ecompass_carrier_board.schematic1(sch_1):ins8934@rp2040_ecompass_carrier_board.\pico_1.normal\(chips)',
 P_PATH='@rp2040_ecompass_carrier_board.schematic1(sch_1):page1_ins8934@rp2040_ecompass_carrier_board.\pico_1.normal\(chips)',
 PRIM_FILE='.\pstchip.dat',
 SECTION='';

PART_NAME
 R1 'RC0805JR-07470RL_RC0805N_YAG_RES':;

SECTION_NUMBER 1
 '@RP2040_ECOMPASS_CARRIER_BOARD.SCHEMATIC1(SCH_1):INS50738@ORCAPTUREDOWNLOAD.RC0805JR-07470RL.NORMAL(SCH_1)':
 C_PATH='@rp2040_ecompass_carrier_board.schematic1(sch_1):ins50738@orcapturedownload.\rc0805jr-07470rl.normal\(sch_1)',
 P_PATH='@rp2040_ecompass_carrier_board.schematic1(sch_1):page1_ins50738@orcapturedownload.\rc0805jr-07470rl.normal\(sch_1)',
 PRIM_FILE='.\pstchip.dat',
 SECTION='';

PART_NAME
 S1 '101-TS6824T1601-EV_101TS6824T1601EV_3.4_101-TS6824T1601-EV_BTN1':;

SECTION_NUMBER 1
 '@RP2040_ECOMPASS_CARRIER_BOARD.SCHEMATIC1(SCH_1):INS14607@ORCAPTUREDOWNLOAD.101-TS6824T1601-EV.NORMAL(CHIPS)':
 C_PATH='@rp2040_ecompass_carrier_board.schematic1(sch_1):ins14607@orcapturedownload.\101-ts6824t1601-ev.normal\(chips)',
 P_PATH='@rp2040_ecompass_carrier_board.schematic1(sch_1):page1_ins14607@orcapturedownload.\101-ts6824t1601-ev.normal\(chips)',
 PRIM_FILE='.\pstchip.dat',
 SECTION='A';

PART_NAME
 S2 '101-TS6824T1601-EV_101TS6824T1601EV_3.4_101-TS6824T1601-EV_BTN2':;

SECTION_NUMBER 1
 '@RP2040_ECOMPASS_CARRIER_BOARD.SCHEMATIC1(SCH_1):INS14796@ORCAPTUREDOWNLOAD.101-TS6824T1601-EV.NORMAL(CHIPS)':
 C_PATH='@rp2040_ecompass_carrier_board.schematic1(sch_1):ins14796@orcapturedownload.\101-ts6824t1601-ev.normal\(chips)',
 P_PATH='@rp2040_ecompass_carrier_board.schematic1(sch_1):page1_ins14796@orcapturedownload.\101-ts6824t1601-ev.normal\(chips)',
 PRIM_FILE='.\pstchip.dat',
 SECTION='A';

PART_NAME
 S3 '101-TS6824T1601-EV_101TS6824T1601EV_3.4_101-TS6824T1601-EV_BTN3':;

SECTION_NUMBER 1
 '@RP2040_ECOMPASS_CARRIER_BOARD.SCHEMATIC1(SCH_1):INS14830@ORCAPTUREDOWNLOAD.101-TS6824T1601-EV.NORMAL(CHIPS)':
 C_PATH='@rp2040_ecompass_carrier_board.schematic1(sch_1):ins14830@orcapturedownload.\101-ts6824t1601-ev.normal\(chips)',
 P_PATH='@rp2040_ecompass_carrier_board.schematic1(sch_1):page1_ins14830@orcapturedownload.\101-ts6824t1601-ev.normal\(chips)',
 PRIM_FILE='.\pstchip.dat',
 SECTION='A';

PART_NAME
 U1 'BM1422AGMV-ZE2_0_MLGA010V020A_ROM_BM1422AGMV-ZE2':;

SECTION_NUMBER 1
 '@RP2040_ECOMPASS_CARRIER_BOARD.SCHEMATIC1(SCH_1):INS50941@RP2040_ECOMPASS_CARRIER_BOARD.BM1422AGMV-ZE2_0.NORMAL(SCH_1)':
 C_PATH='@rp2040_ecompass_carrier_board.schematic1(sch_1):ins50941@rp2040_ecompass_carrier_board.\bm1422agmv-ze2_0.normal\(sch_1)',
 P_PATH='@rp2040_ecompass_carrier_board.schematic1(sch_1):page1_ins50941@rp2040_ecompass_carrier_board.\bm1422agmv-ze2_0.normal\(sch_1)',
 PRIM_FILE='.\pstchip.dat',
 SECTION='';

END.
