PCB Specification created on                     : Nov 14 19:00:10 2021

Output specification for PCB job                 : rp2040_ecompass_carr.brd
Output Generated by                              : Jakob

Output files are archived in                     : rp2040_ecompass_carr-2021-Nov-14-19-00.zip



STACKUP: PRIMARY
    1: --------------  TOP                    (CONDUCTOR   	Er=1.0000, T=0.0305)
                                              (Loss=0.0000, Func=CONDUCTOR , Mat=COPPER)
        ===========                           (DIELECTRIC  	Er=4.5000, T=0.2032)
                                              (Loss=0.0350, Func=DIELECTRIC, Mat=FR-4  )
    2: --------------  BOTTOM                 (CONDUCTOR   	Er=1.0000, T=0.0305)
                                              (Loss=0.0000, Func=CONDUCTOR , Mat=COPPER)

 Total Thickness: 0.2642 millimeters
 Total Thickness without masks: 0.2642 millimeters (Notice that no mask layers are defined in Stackup!



Minimum route width on layer:
	TOP        : 0.300000
	BOTTOM     : 0.300000
IPC 356:
      Netlist name                               : rp2040_ecompass_carr.ipc

      NOTICE: Always perform gerber to IPC netlist comparison!


NC Drill Data:
      Plated Drill file for layers 1-2           : rp2040_ecompass_carr-1-2.drl
      Drill file format specification            : nc_param.txt

Gerber Film:
      Data for top                               : 1_TOP.art
      Data for bottom                            : 2_BOTTOM.art
      Data for NCLEGEND-1-2                      : NCLEGEND-1-2.art
      Data for Board_outline                     : Board_outline.art
      Data for soldermask top                    : Soldermask_top.art
      Data for soldermask bottom                 : Soldermask_bot.art
      Data for pastemask top                     : Solderpaste_top.art
      Data for pastemask bottom                  : Solderpaste_bot.art
      Data for assembly top                      : Assembly_top.art
      Data for assembly bottom                   : Assembly_bot.art
      Data for silkscreen top                    : Silkscreen_top.art
      Data for silkscreen bottom                 : Silkscreen_bot.art
      Data for Masterdrawing                     : Masterdrawing.art
      Data for Cutout                            : Cutout.art
      Artwork file format specification          : art_param.txt

Pick and place data:
      SMD on Top Layer (12 components)           : rp2040_ecompass_carr_sm_top.txt
      Throughhole on Top Layer (2 components)    : rp2040_ecompass_carr_th_top.txt
